Show TCGA data structure by Project ID or ALL — showTCGA • UCSCXenaTools
…
    Value

    a data.frame including project data structure information.

    See also

    UCSCXenaTools::availTCGA()

    Examples

# \donttest{
showTCGA("all")
#> # A tibble: 737 x 3
#>    ProjectID DataType                FileType                                 
#>    <chr>     <chr>                   <chr>                                    
#>  1 OV        DNA Methylation         Methylation27K                           
#>  2 OV        DNA Methylation         Methylation450K                          
#>  3 OV        Gene Level Copy Number  Gistic2                                  
#>  4 OV        Phenotype               Clinical Information                     
#>  5 OV        Protein Expression RPPA RPPA normalized by RBN                   
#>  6 OV        Gene Expression Array   Affymetrix U133A Microarray              
#>  7 OV        Gene Expression RNASeq  IlluminaHiSeq RNASeqV2 in percentile rank
#>  8 OV        Gene Expression RNASeq  IlluminaHiSeq RNASeqV2 pancan normalized 
#>  9 OV        Gene Expression RNASeq  IlluminaHiSeq RNASeqV2                   
#> 10 OV        Gene Expression RNASeq  IlluminaHiSeq RNASeq                     
#> # ... with 727 more rows
…
